<?xml version="1.0" encoding="UTF-8"?>
<svg width="19px" height="19px" viewBox="0 0 19 19" version="1.1" xmlns="http://www.w3.org/2000/svg" xmlns:xlink="http://www.w3.org/1999/xlink">
    <!-- Generator: Sketch 51.2 (57519) - http://www.bohemiancoding.com/sketch -->
    <title>noun_Close_721860</title>
    <desc>Created with Sketch.</desc>
    <defs></defs>
    <g id="Page-1" stroke="none" stroke-width="1" fill="none" fill-rule="evenodd">
        <g id="Modal-detalle" transform="translate(-733.000000, -22.000000)" fill="#070D98" fill-rule="nonzero">
            <g id="head" transform="translate(24.000000, 21.000000)">
                <g id="noun_Close_721860" transform="translate(709.000000, 1.000000)">
                    <g id="Group">
                        <path d="M16.264,18.354 L0.646,2.736 C0.076,2.166 0.076,1.216 0.646,0.646 C1.216,0.076 2.166,0.076 2.736,0.646 L18.354,16.264 C18.924,16.834 18.924,17.784 18.354,18.354 C17.784,18.962 16.834,18.962 16.264,18.354 Z" id="Shape"></path>
                        <path d="M0.646,16.264 L16.264,0.646 C16.834,0.076 17.784,0.076 18.354,0.646 C18.924,1.216 18.924,2.166 18.354,2.736 L2.736,18.354 C2.166,18.924 1.216,18.924 0.646,18.354 C0.038,17.784 0.038,16.834 0.646,16.264 Z" id="Shape"></path>
                    </g>
                </g>
            </g>
        </g>
    </g>
</svg>